…
Below is a table summarizing the number of items ordered from aisle. In
total, there are 134 aisles, with fresh vegetables and fresh fruits
holding the most items ordered by far.

``` r
instacart |> 
  count(aisle) |> 
  arrange(desc(n))
```

    ## # A tibble: 134 × 2
    ##    aisle                              n
    ##    <chr>                          <int>
    ##  1 fresh vegetables              150609
    ##  2 fresh fruits                  150473
    ##  3 packaged vegetables fruits     78493
    ##  4 yogurt                         55240
    ##  5 packaged cheese                41699
    ##  6 water seltzer sparkling water  36617
    ##  7 milk                           32644
    ##  8 chips pretzels                 31269
    ##  9 soy lactosefree                26240
    ## 10 bread                          23635
    ## # ℹ 124 more rows
…
    ## `geom_smooth()` using formula = 'y ~ x'

<img src="p8105_hw3_vsm2118_files/figure-gfm/unnamed-chunk-13-1.png" width="90%" />

``` r
hourly_data
```

    ## # A tibble: 144 × 4
    ##    education             sex    hour mean_activity
    ##    <fct>                 <fct> <dbl>         <dbl>
    ##  1 less than high school male      0          4.29
    ##  2 less than high school male      1          3.45
    ##  3 less than high school male      2          2.46
    ##  4 less than high school male      3          2.07
    ##  5 less than high school male      4          1.94
    ##  6 less than high school male      5          4.03
    ##  7 less than high school male      6          5.83
    ##  8 less than high school male      7          9.59
    ##  9 less than high school male      8         12.6 
    ## 10 less than high school male      9         13.4 
    ## # ℹ 134 more rows
…
